%YAML 1.1
%TAG !u! tag:unity3d.com,2011:
--- !u!1 &2200887734031439174
GameObject:
  m_ObjectHideFlags: 0
  m_CorrespondingSourceObject: {fileID: 0}
  m_PrefabInstance: {fileID: 0}
  m_PrefabAsset: {fileID: 0}
  serializedVersion: 6
  m_Component:
  - component: {fileID: 3177425942094087039}
  - component: {fileID: 4407689652722311073}
  - component: {fileID: 3682724285780379878}
  m_Layer: 0
  m_Name: PlayerHUDShieldQuadrant
  m_TagString: Shield
  m_Icon: {fileID: 0}
  m_NavMeshLayer: 0
  m_StaticEditorFlags: 0
  m_IsActive: 1
--- !u!4 &3177425942094087039
Transform:
  m_ObjectHideFlags: 0
  m_CorrespondingSourceObject: {fileID: 0}
  m_PrefabInstance: {fileID: 0}
  m_PrefabAsset: {fileID: 0}
  m_GameObject: {fileID: 2200887734031439174}
  m_LocalRotation: {x: 0, y: 0, z: 0, w: 1}
  m_LocalPosition: {x: -1.4, y: -1.4, z: 0}
  m_LocalScale: {x: 2, y: 2, z: 1}
  m_Children: []
  m_Father: {fileID: 0}
  m_RootOrder: 0
  m_LocalEulerAnglesHint: {x: 0, y: 0, z: 0}
--- !u!212 &4407689652722311073
SpriteRenderer:
  m_ObjectHideFlags: 0
  m_CorrespondingSourceObject: {fileID: 0}
  m_PrefabInstance: {fileID: 0}
  m_PrefabAsset: {fileID: 0}
  m_GameObject: {fileID: 2200887734031439174}
  m_Enabled: 1
  m_CastShadows: 0
  m_ReceiveShadows: 0
  m_DynamicOccludee: 1
  m_MotionVectors: 1
  m_LightProbeUsage: 1
  m_ReflectionProbeUsage: 1
  m_RayTracingMode: 0
  m_RenderingLayerMask: 1
  m_RendererPriority: 0
  m_Materials:
  - {fileID: 10754, guid: 0000000000000000f000000000000000, type: 0}
  m_StaticBatchInfo:
    firstSubMesh: 0
    subMeshCount: 0
  m_StaticBatchRoot: {fileID: 0}
  m_ProbeAnchor: {fileID: 0}
  m_LightProbeVolumeOverride: {fileID: 0}
  m_ScaleInLightmap: 1
  m_ReceiveGI: 1
  m_PreserveUVs: 0
  m_IgnoreNormalsForChartDetection: 0
  m_ImportantGI: 0
  m_StitchLightmapSeams: 1
  m_SelectedEditorRenderState: 0
  m_MinimumChartSize: 4
  m_AutoUVMaxDistance: 0.5
  m_AutoUVMaxAngle: 89
  m_LightmapParameters: {fileID: 0}
  m_SortingLayerID: 1277603319
  m_SortingLayer: 3
  m_SortingOrder: 4
  m_Sprite: {fileID: 21300000, guid: 0de0a2a3b0b3b7b41a9556fd87143277, type: 3}
  m_Color: {r: 1, g: 1, b: 1, a: 1}
  m_FlipX: 0
  m_FlipY: 0
  m_DrawMode: 0
  m_Size: {x: 1.54, y: 1.54}
  m_AdaptiveModeThreshold: 0.5
  m_SpriteTileMode: 0
  m_WasSpriteAssigned: 1
  m_MaskInteraction: 0
  m_SpriteSortPoint: 0
--- !u!114 &3682724285780379878
MonoBehaviour:
  m_ObjectHideFlags: 0
  m_CorrespondingSourceObject: {fileID: 0}
  m_PrefabInstance: {fileID: 0}
  m_PrefabAsset: {fileID: 0}
  m_GameObject: {fileID: 2200887734031439174}
  m_Enabled: 1
  m_EditorHideFlags: 0
  m_Script: {fileID: 11500000, guid: 0c49174cc94f2fe46b402ac163835cd3, type: 3}
  m_Name: 
  m_EditorClassIdentifier: 
  spriteRenderer: {fileID: 0}
  spriteArray:
  - {fileID: 21300000, guid: dff18a3c0fedb7a499211e7d15424272, type: 3}
  - {fileID: 21300000, guid: 2cdd6ea844d9ecf4fb1a6a0a3dfff5ad, type: 3}
  - {fileID: 21300000, guid: 006fe95ba06e421449bf7a7fcb1ab6d9, type: 3}
  - {fileID: 21300000, guid: ebf47235d7667c446b7b60aa0c26af90, type: 3}
  - {fileID: 21300000, guid: 4f29a7ac9dbf8dd4e840484ac17c33c1, type: 3}
  - {fileID: 21300000, guid: 200a4f283823e7e4d8f3a6a6c0e4d70c, type: 3}
  - {fileID: 21300000, guid: 74cc63c5c13146148b736fbbb8dbc6d9, type: 3}
  - {fileID: 21300000, guid: 02b4f84cfc46ea74e8075e26e6451fca, type: 3}
  - {fileID: 21300000, guid: b7203de8893eb6a4ea20721bf6476e7b, type: 3}
  - {fileID: 21300000, guid: 0de0a2a3b0b3b7b41a9556fd87143277, type: 3}
