%YAML 1.1
%TAG !u! tag:unity3d.com,2011:
--- !u!1 &8371398245522615656
GameObject:
  m_ObjectHideFlags: 0
  m_CorrespondingSourceObject: {fileID: 0}
  m_PrefabInstance: {fileID: 0}
  m_PrefabAsset: {fileID: 0}
  serializedVersion: 6
  m_Component:
  - component: {fileID: 8371398245522615653}
  - component: {fileID: 8371398245522615658}
  - component: {fileID: 8371398245522615652}
  - component: {fileID: 8371398245522615655}
  m_Layer: 9
  m_Name: ShieldPowerup
  m_TagString: Shield Powerup
  m_Icon: {fileID: 0}
  m_NavMeshLayer: 0
  m_StaticEditorFlags: 0
  m_IsActive: 1
--- !u!4 &8371398245522615653
Transform:
  m_ObjectHideFlags: 0
  m_CorrespondingSourceObject: {fileID: 0}
  m_PrefabInstance: {fileID: 0}
  m_PrefabAsset: {fileID: 0}
  m_GameObject: {fileID: 8371398245522615656}
  m_LocalRotation: {x: 0, y: 0, z: 0, w: 1}
  m_LocalPosition: {x: -6.989, y: 1.236, z: 0}
  m_LocalScale: {x: 0.29152605, y: 0.29152605, z: 0.29152605}
  m_Children: []
  m_Father: {fileID: 0}
  m_RootOrder: 0
  m_LocalEulerAnglesHint: {x: 0, y: 0, z: 0}
--- !u!212 &8371398245522615658
SpriteRenderer:
  m_ObjectHideFlags: 0
  m_CorrespondingSourceObject: {fileID: 0}
  m_PrefabInstance: {fileID: 0}
  m_PrefabAsset: {fileID: 0}
  m_GameObject: {fileID: 8371398245522615656}
  m_Enabled: 1
  m_CastShadows: 0
  m_ReceiveShadows: 0
  m_DynamicOccludee: 1
  m_MotionVectors: 1
  m_LightProbeUsage: 1
  m_ReflectionProbeUsage: 1
  m_RayTracingMode: 0
  m_RenderingLayerMask: 1
  m_RendererPriority: 0
  m_Materials:
  - {fileID: 10754, guid: 0000000000000000f000000000000000, type: 0}
  m_StaticBatchInfo:
    firstSubMesh: 0
    subMeshCount: 0
  m_StaticBatchRoot: {fileID: 0}
  m_ProbeAnchor: {fileID: 0}
  m_LightProbeVolumeOverride: {fileID: 0}
  m_ScaleInLightmap: 1
  m_ReceiveGI: 1
  m_PreserveUVs: 0
  m_IgnoreNormalsForChartDetection: 0
  m_ImportantGI: 0
  m_StitchLightmapSeams: 1
  m_SelectedEditorRenderState: 0
  m_MinimumChartSize: 4
  m_AutoUVMaxDistance: 0.5
  m_AutoUVMaxAngle: 89
  m_LightmapParameters: {fileID: 0}
  m_SortingLayerID: 0
  m_SortingLayer: 0
  m_SortingOrder: 0
  m_Sprite: {fileID: 21300000, guid: edf1a89d3657aad4d81d809106495126, type: 3}
  m_Color: {r: 1, g: 1, b: 1, a: 1}
  m_FlipX: 0
  m_FlipY: 0
  m_DrawMode: 0
  m_Size: {x: 2.03, y: 2.03}
  m_AdaptiveModeThreshold: 0.5
  m_SpriteTileMode: 0
  m_WasSpriteAssigned: 1
  m_MaskInteraction: 0
  m_SpriteSortPoint: 0
--- !u!60 &8371398245522615652
PolygonCollider2D:
  m_ObjectHideFlags: 0
  m_CorrespondingSourceObject: {fileID: 0}
  m_PrefabInstance: {fileID: 0}
  m_PrefabAsset: {fileID: 0}
  m_GameObject: {fileID: 8371398245522615656}
  m_Enabled: 1
  m_Density: 1
  m_Material: {fileID: 0}
  m_IsTrigger: 0
  m_UsedByEffector: 0
  m_UsedByComposite: 0
  m_Offset: {x: 0, y: 0}
  m_SpriteTilingProperty:
    border: {x: 0, y: 0, z: 0, w: 0}
    pivot: {x: 0.5, y: 0.5}
    oldSize: {x: 2.03, y: 2.03}
    newSize: {x: 2.03, y: 2.03}
    adaptiveTilingThreshold: 0.5
    drawMode: 0
    adaptiveTiling: 0
  m_AutoTiling: 0
  m_Points:
    m_Paths:
    - - {x: 0.865, y: -0.615}
      - {x: 0.98499995, y: -0.39499998}
      - {x: 1.015, y: -0.24499999}
      - {x: 1.015, y: 0.24499999}
      - {x: 0.98499995, y: 0.375}
      - {x: 0.955, y: 0.445}
      - {x: 0.895, y: 0.555}
      - {x: 0.635, y: 0.84499997}
      - {x: 0.435, y: 0.945}
      - {x: 0.24499999, y: 1.005}
      - {x: -0.185, y: 1.005}
      - {x: -0.375, y: 0.955}
      - {x: -0.49499997, y: 0.885}
      - {x: -0.625, y: 0.805}
      - {x: -0.825, y: 0.59499997}
      - {x: -0.885, y: 0.505}
      - {x: -0.965, y: 0.305}
      - {x: -0.995, y: 0.205}
      - {x: -0.995, y: -0.205}
      - {x: -0.97499996, y: -0.33499998}
      - {x: -0.865, y: -0.59499997}
      - {x: -0.705, y: -0.765}
      - {x: -0.48499998, y: -0.92499995}
      - {x: -0.375, y: -0.97499996}
      - {x: -0.205, y: -1.015}
      - {x: 0.225, y: -1.015}
      - {x: 0.385, y: -0.98499995}
      - {x: 0.545, y: -0.905}
      - {x: 0.635, y: -0.84499997}
--- !u!114 &8371398245522615655
MonoBehaviour:
  m_ObjectHideFlags: 0
  m_CorrespondingSourceObject: {fileID: 0}
  m_PrefabInstance: {fileID: 0}
  m_PrefabAsset: {fileID: 0}
  m_GameObject: {fileID: 8371398245522615656}
  m_Enabled: 1
  m_EditorHideFlags: 0
  m_Script: {fileID: 11500000, guid: 9e6626516d44344cbb03a739dd9ec6cc, type: 3}
  m_Name: 
  m_EditorClassIdentifier: 
